(module LED_Soldering_Pad (layer F.Cu) (tedit 5942842D)
  (fp_text reference REF** (at 0 4.25) (layer F.SilkS)
    (effects (font (size 1 1) (thickness 0.15)))
  )
  (fp_text value LED (at -4.75 0 90) (layer F.Fab)
    (effects (font (size 1 1) (thickness 0.15)))
  )
  (pad 1 smd oval (at 0 -1.75) (size 7 2.5) (layers F.Cu F.Paste F.Mask))
  (pad 2 smd oval (at 0 1.75) (size 7 2.5) (layers F.Cu F.Paste F.Mask))
)
